
{
  "id": "AdvEngineGameProject",
  "title": "AdvEngine Game Project",

  "display":{
    "dimensions": [1024,640],
    "mode": {
      "vsync": true,
      "fullscreen":false,
      "fullscreentype":"desktop"
    }
  },

  "graphics": {
    "tile-dimensions": [64,64],
    "default-filter": "linear"
  },

  "gamedata": {
    "next_id": 0,
    "playtime": 0,
    "flags": {},
    "maps": {},
    "currentmap": "default",
    "player": {
      "specname": "sample",
      "pos": [9, 6]
    }
  },

  "controls": {
    "digital": {
      "DIR_UP": ["up"],
      "DIR_DOWN": ["down"],
      "DIR_LEFT": ["left"],
      "DIR_RIGHT": ["right"],
      "ACTION_A": ["z", "return"],
      "ACTION_B": ["x"],
      "ACTION_C": ["c"],
      "ACTION_D": ["v"],
      "ACTION_PAUSE": ["escape"],
      "DEBUG_QUIT": ["f8"],
      "DEBUG_DEVMODE": ["f1"],
      "DEBUG_CANCEL": ["escape"],
      "DEBUG_CONFIRM": ["return"]
    },
    "analog": {
      "AXIS_X": 1,
      "AXIS_Y": 3
    },
    "hat": {
      "HAT_DIR": 1
    }
  }
}

